{
  "$schema": "https://raw.githubusercontent.com/cypress-io/cypress/develop/cli/schema/cypress.schema.json",
  "baseUrl": "http://localhost:8080",
  "video": false,
  "testFiles": "**/*_spec.js",
  "fixturesFolder": "tests/fixtures",
  "integrationFolder": "tests/integration",
  "pluginsFile": "tests/plugins/index.js",
  "screenshotsFolder": "tests/screenshots",
  "supportFile": "tests/support/index.js"
}
